// Jest Snapshot v1, https://goo.gl/fbAQLP

exports[`App should render correctly 1`] = `
ShallowWrapper {
  Symbol(enzyme.__root__): [Circular],
  Symbol(enzyme.__unrendered__): <App />,
  Symbol(enzyme.__renderer__): Object {
    "batchedUpdates": [Function],
    "getNode": [Function],
    "render": [Function],
    "simulateError": [Function],
    "simulateEvent": [Function],
    "unmount": [Function],
  },
  Symbol(enzyme.__node__): Object {
    "instance": null,
    "key": undefined,
    "nodeType": "function",
    "props": Object {
      "children": Array [
        <section>
          <h1>
            Cards deck
          </h1>
          <Deck
            remainCards={
              Array [
                "AH",
                "8H",
                "TH",
                "4C",
                "2D",
                "KS",
                "KH",
                "5D",
                "7D",
                "TS",
                "AS",
                "AC",
                "9H",
                "4S",
                "4D",
                "3D",
                "QD",
                "TC",
                "JH",
                "8C",
                "QH",
                "3S",
                "TD",
                "6C",
                "6H",
                "JD",
                "5H",
                "QC",
                "7H",
                "KD",
                "7S",
                "JC",
                "8D",
                "8S",
                "9C",
                "2H",
                "3C",
                "6D",
                "3H",
                "6S",
                "5S",
                "2S",
                "4H",
                "JS",
                "AD",
                "9S",
                "KC",
                "9D",
                "2C",
                "QS",
                "7C",
                "5C",
              ]
            }
            suits={
              Array [
                "D",
                "H",
                "S",
                "C",
              ]
            }
            values={
              Array [
                "2",
                "3",
                "4",
                "5",
                "6",
                "7",
                "8",
                "9",
                "T",
                "J",
                "Q",
                "K",
                "A",
              ]
            }
          />
        </section>,
        <section>
          <header>
            <h1>
              Players
            </h1>
          </header>
          <section />
          <ForwardRef>
            <Button
              icon="🙋‍♀️"
              onClick={[Function]}
            >
              Add new player
            </Button>
            <Button
              icon="🏆"
              onClick={[Function]}
            >
              Find the winner
            </Button>
          </ForwardRef>
        </section>,
      ],
    },
    "ref": null,
    "rendered": Array [
      Object {
        "instance": null,
        "key": undefined,
        "nodeType": "host",
        "props": Object {
          "children": Array [
            <h1>
              Cards deck
            </h1>,
            <Deck
              remainCards={
                Array [
                  "AH",
                  "8H",
                  "TH",
                  "4C",
                  "2D",
                  "KS",
                  "KH",
                  "5D",
                  "7D",
                  "TS",
                  "AS",
                  "AC",
                  "9H",
                  "4S",
                  "4D",
                  "3D",
                  "QD",
                  "TC",
                  "JH",
                  "8C",
                  "QH",
                  "3S",
                  "TD",
                  "6C",
                  "6H",
                  "JD",
                  "5H",
                  "QC",
                  "7H",
                  "KD",
                  "7S",
                  "JC",
                  "8D",
                  "8S",
                  "9C",
                  "2H",
                  "3C",
                  "6D",
                  "3H",
                  "6S",
                  "5S",
                  "2S",
                  "4H",
                  "JS",
                  "AD",
                  "9S",
                  "KC",
                  "9D",
                  "2C",
                  "QS",
                  "7C",
                  "5C",
                ]
              }
              suits={
                Array [
                  "D",
                  "H",
                  "S",
                  "C",
                ]
              }
              values={
                Array [
                  "2",
                  "3",
                  "4",
                  "5",
                  "6",
                  "7",
                  "8",
                  "9",
                  "T",
                  "J",
                  "Q",
                  "K",
                  "A",
                ]
              }
            />,
          ],
        },
        "ref": null,
        "rendered": Array [
          Object {
            "instance": null,
            "key": undefined,
            "nodeType": "host",
            "props": Object {
              "children": "Cards deck",
            },
            "ref": null,
            "rendered": "Cards deck",
            "type": "h1",
          },
          Object {
            "instance": null,
            "key": undefined,
            "nodeType": "function",
            "props": Object {
              "remainCards": Array [
                "AH",
                "8H",
                "TH",
                "4C",
                "2D",
                "KS",
                "KH",
                "5D",
                "7D",
                "TS",
                "AS",
                "AC",
                "9H",
                "4S",
                "4D",
                "3D",
                "QD",
                "TC",
                "JH",
                "8C",
                "QH",
                "3S",
                "TD",
                "6C",
                "6H",
                "JD",
                "5H",
                "QC",
                "7H",
                "KD",
                "7S",
                "JC",
                "8D",
                "8S",
                "9C",
                "2H",
                "3C",
                "6D",
                "3H",
                "6S",
                "5S",
                "2S",
                "4H",
                "JS",
                "AD",
                "9S",
                "KC",
                "9D",
                "2C",
                "QS",
                "7C",
                "5C",
              ],
              "suits": Array [
                "D",
                "H",
                "S",
                "C",
              ],
              "values": Array [
                "2",
                "3",
                "4",
                "5",
                "6",
                "7",
                "8",
                "9",
                "T",
                "J",
                "Q",
                "K",
                "A",
              ],
            },
            "ref": null,
            "rendered": null,
            "type": [Function],
          },
        ],
        "type": "section",
      },
      Object {
        "instance": null,
        "key": undefined,
        "nodeType": "host",
        "props": Object {
          "children": Array [
            <header>
              <h1>
                Players
              </h1>
            </header>,
            <section />,
            <ForwardRef>
              <Button
                icon="🙋‍♀️"
                onClick={[Function]}
              >
                Add new player
              </Button>
              <Button
                icon="🏆"
                onClick={[Function]}
              >
                Find the winner
              </Button>
            </ForwardRef>,
          ],
        },
        "ref": null,
        "rendered": Array [
          Object {
            "instance": null,
            "key": undefined,
            "nodeType": "host",
            "props": Object {
              "children": <h1>
                Players
              </h1>,
            },
            "ref": null,
            "rendered": Object {
              "instance": null,
              "key": undefined,
              "nodeType": "host",
              "props": Object {
                "children": "Players",
              },
              "ref": null,
              "rendered": "Players",
              "type": "h1",
            },
            "type": "header",
          },
          Object {
            "instance": null,
            "key": undefined,
            "nodeType": "host",
            "props": Object {
              "children": Array [],
            },
            "ref": null,
            "rendered": Array [],
            "type": "section",
          },
          Object {
            "instance": null,
            "key": undefined,
            "nodeType": "function",
            "props": Object {
              "children": Array [
                <Button
                  icon="🙋‍♀️"
                  onClick={[Function]}
                >
                  Add new player
                </Button>,
                <Button
                  icon="🏆"
                  onClick={[Function]}
                >
                  Find the winner
                </Button>,
              ],
            },
            "ref": null,
            "rendered": Array [
              Object {
                "instance": null,
                "key": undefined,
                "nodeType": "function",
                "props": Object {
                  "children": "Add new player",
                  "icon": "🙋‍♀️",
                  "onClick": [Function],
                },
                "ref": null,
                "rendered": "Add new player",
                "type": [Function],
              },
              Object {
                "instance": null,
                "key": undefined,
                "nodeType": "function",
                "props": Object {
                  "children": "Find the winner",
                  "icon": "🏆",
                  "onClick": [Function],
                },
                "ref": null,
                "rendered": "Find the winner",
                "type": [Function],
              },
            ],
            "type": Object {
              "$$typeof": Symbol(react.forward_ref),
              "attrs": Array [],
              "componentStyle": ComponentStyle {
                "componentId": "sc-bxivhb",
                "isStatic": true,
                "lastClassName": "ghhSQC",
                "rules": Array [
                  "
	border-top: 1px solid #eee;
	margin-top: 20px;
	padding: 20px 0;
",
                ],
              },
              "displayName": "styled.footer",
              "render": [Function],
              "styledComponentId": "sc-bxivhb",
              "target": "footer",
              "toString": [Function],
              "warnTooManyClasses": [Function],
              "withComponent": [Function],
            },
          },
        ],
        "type": "section",
      },
    ],
    "type": [Function],
  },
  Symbol(enzyme.__nodes__): Array [
    Object {
      "instance": null,
      "key": undefined,
      "nodeType": "function",
      "props": Object {
        "children": Array [
          <section>
            <h1>
              Cards deck
            </h1>
            <Deck
              remainCards={
                Array [
                  "AH",
                  "8H",
                  "TH",
                  "4C",
                  "2D",
                  "KS",
                  "KH",
                  "5D",
                  "7D",
                  "TS",
                  "AS",
                  "AC",
                  "9H",
                  "4S",
                  "4D",
                  "3D",
                  "QD",
                  "TC",
                  "JH",
                  "8C",
                  "QH",
                  "3S",
                  "TD",
                  "6C",
                  "6H",
                  "JD",
                  "5H",
                  "QC",
                  "7H",
                  "KD",
                  "7S",
                  "JC",
                  "8D",
                  "8S",
                  "9C",
                  "2H",
                  "3C",
                  "6D",
                  "3H",
                  "6S",
                  "5S",
                  "2S",
                  "4H",
                  "JS",
                  "AD",
                  "9S",
                  "KC",
                  "9D",
                  "2C",
                  "QS",
                  "7C",
                  "5C",
                ]
              }
              suits={
                Array [
                  "D",
                  "H",
                  "S",
                  "C",
                ]
              }
              values={
                Array [
                  "2",
                  "3",
                  "4",
                  "5",
                  "6",
                  "7",
                  "8",
                  "9",
                  "T",
                  "J",
                  "Q",
                  "K",
                  "A",
                ]
              }
            />
          </section>,
          <section>
            <header>
              <h1>
                Players
              </h1>
            </header>
            <section />
            <ForwardRef>
              <Button
                icon="🙋‍♀️"
                onClick={[Function]}
              >
                Add new player
              </Button>
              <Button
                icon="🏆"
                onClick={[Function]}
              >
                Find the winner
              </Button>
            </ForwardRef>
          </section>,
        ],
      },
      "ref": null,
      "rendered": Array [
        Object {
          "instance": null,
          "key": undefined,
          "nodeType": "host",
          "props": Object {
            "children": Array [
              <h1>
                Cards deck
              </h1>,
              <Deck
                remainCards={
                  Array [
                    "AH",
                    "8H",
                    "TH",
                    "4C",
                    "2D",
                    "KS",
                    "KH",
                    "5D",
                    "7D",
                    "TS",
                    "AS",
                    "AC",
                    "9H",
                    "4S",
                    "4D",
                    "3D",
                    "QD",
                    "TC",
                    "JH",
                    "8C",
                    "QH",
                    "3S",
                    "TD",
                    "6C",
                    "6H",
                    "JD",
                    "5H",
                    "QC",
                    "7H",
                    "KD",
                    "7S",
                    "JC",
                    "8D",
                    "8S",
                    "9C",
                    "2H",
                    "3C",
                    "6D",
                    "3H",
                    "6S",
                    "5S",
                    "2S",
                    "4H",
                    "JS",
                    "AD",
                    "9S",
                    "KC",
                    "9D",
                    "2C",
                    "QS",
                    "7C",
                    "5C",
                  ]
                }
                suits={
                  Array [
                    "D",
                    "H",
                    "S",
                    "C",
                  ]
                }
                values={
                  Array [
                    "2",
                    "3",
                    "4",
                    "5",
                    "6",
                    "7",
                    "8",
                    "9",
                    "T",
                    "J",
                    "Q",
                    "K",
                    "A",
                  ]
                }
              />,
            ],
          },
          "ref": null,
          "rendered": Array [
            Object {
              "instance": null,
              "key": undefined,
              "nodeType": "host",
              "props": Object {
                "children": "Cards deck",
              },
              "ref": null,
              "rendered": "Cards deck",
              "type": "h1",
            },
            Object {
              "instance": null,
              "key": undefined,
              "nodeType": "function",
              "props": Object {
                "remainCards": Array [
                  "AH",
                  "8H",
                  "TH",
                  "4C",
                  "2D",
                  "KS",
                  "KH",
                  "5D",
                  "7D",
                  "TS",
                  "AS",
                  "AC",
                  "9H",
                  "4S",
                  "4D",
                  "3D",
                  "QD",
                  "TC",
                  "JH",
                  "8C",
                  "QH",
                  "3S",
                  "TD",
                  "6C",
                  "6H",
                  "JD",
                  "5H",
                  "QC",
                  "7H",
                  "KD",
                  "7S",
                  "JC",
                  "8D",
                  "8S",
                  "9C",
                  "2H",
                  "3C",
                  "6D",
                  "3H",
                  "6S",
                  "5S",
                  "2S",
                  "4H",
                  "JS",
                  "AD",
                  "9S",
                  "KC",
                  "9D",
                  "2C",
                  "QS",
                  "7C",
                  "5C",
                ],
                "suits": Array [
                  "D",
                  "H",
                  "S",
                  "C",
                ],
                "values": Array [
                  "2",
                  "3",
                  "4",
                  "5",
                  "6",
                  "7",
                  "8",
                  "9",
                  "T",
                  "J",
                  "Q",
                  "K",
                  "A",
                ],
              },
              "ref": null,
              "rendered": null,
              "type": [Function],
            },
          ],
          "type": "section",
        },
        Object {
          "instance": null,
          "key": undefined,
          "nodeType": "host",
          "props": Object {
            "children": Array [
              <header>
                <h1>
                  Players
                </h1>
              </header>,
              <section />,
              <ForwardRef>
                <Button
                  icon="🙋‍♀️"
                  onClick={[Function]}
                >
                  Add new player
                </Button>
                <Button
                  icon="🏆"
                  onClick={[Function]}
                >
                  Find the winner
                </Button>
              </ForwardRef>,
            ],
          },
          "ref": null,
          "rendered": Array [
            Object {
              "instance": null,
              "key": undefined,
              "nodeType": "host",
              "props": Object {
                "children": <h1>
                  Players
                </h1>,
              },
              "ref": null,
              "rendered": Object {
                "instance": null,
                "key": undefined,
                "nodeType": "host",
                "props": Object {
                  "children": "Players",
                },
                "ref": null,
                "rendered": "Players",
                "type": "h1",
              },
              "type": "header",
            },
            Object {
              "instance": null,
              "key": undefined,
              "nodeType": "host",
              "props": Object {
                "children": Array [],
              },
              "ref": null,
              "rendered": Array [],
              "type": "section",
            },
            Object {
              "instance": null,
              "key": undefined,
              "nodeType": "function",
              "props": Object {
                "children": Array [
                  <Button
                    icon="🙋‍♀️"
                    onClick={[Function]}
                  >
                    Add new player
                  </Button>,
                  <Button
                    icon="🏆"
                    onClick={[Function]}
                  >
                    Find the winner
                  </Button>,
                ],
              },
              "ref": null,
              "rendered": Array [
                Object {
                  "instance": null,
                  "key": undefined,
                  "nodeType": "function",
                  "props": Object {
                    "children": "Add new player",
                    "icon": "🙋‍♀️",
                    "onClick": [Function],
                  },
                  "ref": null,
                  "rendered": "Add new player",
                  "type": [Function],
                },
                Object {
                  "instance": null,
                  "key": undefined,
                  "nodeType": "function",
                  "props": Object {
                    "children": "Find the winner",
                    "icon": "🏆",
                    "onClick": [Function],
                  },
                  "ref": null,
                  "rendered": "Find the winner",
                  "type": [Function],
                },
              ],
              "type": Object {
                "$$typeof": Symbol(react.forward_ref),
                "attrs": Array [],
                "componentStyle": ComponentStyle {
                  "componentId": "sc-bxivhb",
                  "isStatic": true,
                  "lastClassName": "ghhSQC",
                  "rules": Array [
                    "
	border-top: 1px solid #eee;
	margin-top: 20px;
	padding: 20px 0;
",
                  ],
                },
                "displayName": "styled.footer",
                "render": [Function],
                "styledComponentId": "sc-bxivhb",
                "target": "footer",
                "toString": [Function],
                "warnTooManyClasses": [Function],
                "withComponent": [Function],
              },
            },
          ],
          "type": "section",
        },
      ],
      "type": [Function],
    },
  ],
  Symbol(enzyme.__options__): Object {
    "adapter": ReactSixteenAdapter {
      "options": Object {
        "enableComponentDidUpdateOnSetState": true,
        "lifecycles": Object {
          "componentDidUpdate": Object {
            "onSetState": true,
          },
          "getDerivedStateFromProps": true,
          "getSnapshotBeforeUpdate": true,
          "setState": Object {
            "skipsComponentDidUpdateOnNullish": true,
          },
        },
      },
    },
  },
}
`;
